/* XPM */
static char * C:\Users\Home\Pictures\Sch\real\New folder\new\bitcoin128_xpm[] = {
"128 128 648 2",
"  	c None",
". 	c #4F4F4F",
"+ 	c #303030",
"@ 	c #252525",
"# 	c #222222",
"$ 	c #1C1C1C",
"% 	c #181818",
"& 	c #171717",
"* 	c #121212",
"= 	c #111111",
"- 	c #161616",
"; 	c #242424",
"> 	c #414141",
", 	c #2F2F2F",
"' 	c #282828",
") 	c #1A1A1A",
"! 	c #000000",
"~ 	c #2E2E2E",
"{ 	c #404040",
"] 	c #272727",
"^ 	c #040404",
"/ 	c #010101",
"( 	c #060606",
"_ 	c #080808",
": 	c #0B0B0B",
"< 	c #0E0E0E",
"[ 	c #131313",
"} 	c #0A0A0A",
"| 	c #030303",
"1 	c #606060",
"2 	c #949494",
"3 	c #B3B3B3",
"4 	c #B8B8B8",
"5 	c #CCCCCC",
"6 	c #DFDFDF",
"7 	c #ECECEC",
"8 	c #F2F2F2",
"9 	c #F4F4F4",
"0 	c #F6F6F6",
"a 	c #F7F7F7",
"b 	c #DEDEDE",
"c 	c #CBCBCB",
"d 	c #B2B2B2",
"e 	c #939393",
"f 	c #2C2C2C",
"g 	c #373737",
"h 	c #1E1E1E",
"i 	c #646464",
"j 	c #A0A0A0",
"k 	c #C1C1C1",
"l 	c #EFEFEF",
"m 	c #FDFDFD",
"n 	c #FFFFFF",
"o 	c #C2C2C2",
"p 	c #A2A2A2",
"q 	c #666666",
"r 	c #202020",
"s 	c #353535",
"t 	c #2B2B2B",
"u 	c #020202",
"v 	c #C7C7C7",
"w 	c #C9C9C9",
"x 	c #262626",
"y 	c #D9D9D9",
"z 	c #DDDDDD",
"A 	c #959595",
"B 	c #333333",
"C 	c #757575",
"D 	c #D1D1D1",
"E 	c #FAFAFA",
"F 	c #D3D3D3",
"G 	c #767676",
"H 	c #898989",
"I 	c #E1E1E1",
"J 	c #8A8A8A",
"K 	c #070707",
"L 	c #969696",
"M 	c #F0F0F0",
"N 	c #EDEDED",
"O 	c #050505",
"P 	c #2D2D2D",
"Q 	c #848484",
"R 	c #EAEAEA",
"S 	c #EBEBEB",
"T 	c #818181",
"U 	c #5C5C5C",
"V 	c #DADADA",
"W 	c #5A5A5A",
"X 	c #313131",
"Y 	c #212121",
"Z 	c #C4C4C4",
"` 	c #BFBFBF",
" .	c #1F1F1F",
"..	c #7A7A7A",
"+.	c #FBDEBB",
"@.	c #F5A952",
"#.	c #F5A243",
"$.	c #FBDDBA",
"%.	c #747474",
"&.	c #090909",
"*.	c #2A2A2A",
"=.	c #0C0C0C",
"-.	c #FDEDDB",
";.	c #FCE4C9",
">.	c #FEF8F2",
",.	c #FDF1E3",
"'.	c #F5A244",
").	c #F49D39",
"!.	c #F4A040",
"~.	c #FDF0E0",
"{.	c #E7E7E7",
"].	c #F9CD9A",
"^.	c #F4A142",
"/.	c #F6AC58",
"(.	c #FDE9D4",
"_.	c #FAD09F",
":.	c #FBDAB4",
"<.	c #E5E5E5",
"[.	c #858585",
"}.	c #F8F8F8",
"|.	c #FCE2C4",
"1.	c #F6AF5E",
"2.	c #FEF9F3",
"3.	c #FEFAF4",
"4.	c #FFFDFC",
"5.	c #F6B060",
"6.	c #FCE4C8",
"7.	c #A1A1A1",
"8.	c #F7BB76",
"9.	c #F49F3C",
"0.	c #FDE9D3",
"a.	c #F9CC98",
"b.	c #F5A74E",
"c.	c #F5A64C",
"d.	c #F9CB95",
"e.	c #FCE5CA",
"f.	c #F6B05F",
"g.	c #FFFCFA",
"h.	c #ACACAC",
"i.	c #191919",
"j.	c #FDF1E2",
"k.	c #F4A141",
"l.	c #F5A74C",
"m.	c #FEF2E5",
"n.	c #FAD3A6",
"o.	c #FACF9F",
"p.	c #F8C284",
"q.	c #FAD2A3",
"r.	c #ADADAD",
"s.	c #151515",
"t.	c #D2D2D2",
"u.	c #FAD0A0",
"v.	c #F8C181",
"w.	c #FFFCF8",
"x.	c #F5A951",
"y.	c #FEF7EE",
"z.	c #F5A345",
"A.	c #D0D0D0",
"B.	c #D7D7D7",
"C.	c #F6AE5A",
"D.	c #FCE3C6",
"E.	c #FBDEBD",
"F.	c #F7B76D",
"G.	c #FAD4A8",
"H.	c #F8BD7A",
"I.	c #FBDFBF",
"J.	c #F6AE5C",
"K.	c #F8C080",
"L.	c #FAD4A7",
"M.	c #FFFEFD",
"N.	c #F6AD5A",
"O.	c #FCE1C3",
"P.	c #292929",
"Q.	c #F8BE7B",
"R.	c #FACF9E",
"S.	c #FEF4E8",
"T.	c #F6AA54",
"U.	c #B5B5B5",
"V.	c #F49F3D",
"W.	c #FBDFBE",
"X.	c #F9C992",
"Y.	c #FACF9D",
"Z.	c #B6B6B6",
"`.	c #FAD1A2",
" +	c #F8BE7C",
".+	c #FBD9B1",
"++	c #F6AC57",
"@+	c #FFFBF7",
"#+	c #FDF2E4",
"$+	c #F5A447",
"%+	c #F4A03F",
"&+	c #FEF3E6",
"*+	c #F6B161",
"=+	c #FCE6CC",
"-+	c #FEFAF6",
";+	c #FBD7AE",
">+	c #1D1D1D",
",+	c #FCFCFC",
"'+	c #FCE2C5",
")+	c #FCE1C2",
"!+	c #F8C387",
"~+	c #F9C78E",
"{+	c #FAD2A4",
"]+	c #F5A549",
"^+	c #F6B263",
"/+	c #FFFDFA",
"(+	c #F8C386",
"_+	c #FEF3E8",
":+	c #FEF7EF",
"<+	c #FCE8D0",
"[+	c #F7B66B",
"}+	c #FAD5AA",
"|+	c #6B6B6B",
"1+	c #F9C58B",
"2+	c #FBDAB5",
"3+	c #F5AA53",
"4+	c #F4A03E",
"5+	c #F6B162",
"6+	c #FDECD9",
"7+	c #F7B467",
"8+	c #FCE0C1",
"9+	c #717171",
"0+	c #FBD9B3",
"a+	c #FFFBF6",
"b+	c #FDEBD7",
"c+	c #FEFAF5",
"d+	c #FCE7CE",
"e+	c #F5A54A",
"f+	c #F7B569",
"g+	c #FDEAD4",
"h+	c #C0C0C0",
"i+	c #F9CE9C",
"j+	c #FEF6EC",
"k+	c #F5A448",
"l+	c #FEF6ED",
"m+	c #C3C3C3",
"n+	c #F49E3B",
"o+	c #FDEFDE",
"p+	c #FAD5AD",
"q+	c #F6AE5B",
"r+	c #FEF8F1",
"s+	c #FDEEDE",
"t+	c #FAD7AD",
"u+	c #FEF8F0",
"v+	c #515151",
"w+	c #FEF4E9",
"x+	c #FBDCB8",
"y+	c #F7B870",
"z+	c #FBE1C4",
"A+	c #E6E6E6",
"B+	c #808080",
"C+	c #F6AF5D",
"D+	c #F7B86F",
"E+	c #FDF0E1",
"F+	c #F7B972",
"G+	c #FAD5AB",
"H+	c #FAD4A9",
"I+	c #FBDCB9",
"J+	c #FDEEDD",
"K+	c #FFFDFB",
"L+	c #F8C58A",
"M+	c #FEF5EC",
"N+	c #F9CB96",
"O+	c #F9C891",
"P+	c #FAD6AE",
"Q+	c #F1F2F3",
"R+	c #FCE5CB",
"S+	c #F7B366",
"T+	c #F9C890",
"U+	c #F9CC97",
"V+	c #F7BC78",
"W+	c #FEEEDC",
"X+	c #F9F9FA",
"Y+	c #3D4A52",
"Z+	c #47535B",
"`+	c #B8BDC0",
" @	c #F9C78D",
".@	c #F9CA93",
"+@	c #F5A950",
"@@	c #FFFFFE",
"#@	c #F7C184",
"$@	c #B7BBBF",
"%@	c #00101C",
"&@	c #3A4650",
"*@	c #949BA0",
"=@	c #E7E8EA",
"-@	c #FEF5EB",
";@	c #F6AB55",
">@	c #F49F3E",
",@	c #F9F9F9",
"'@	c #8B8B8B",
")@	c #F7B468",
"!@	c #FEE9D1",
"~@	c #525E65",
"{@	c #1C2A35",
"]@	c #778086",
"^@	c #F3F4F4",
"/@	c #FBDDBB",
"(@	c #FCE7CF",
"_@	c #EEEEEE",
":@	c #F8BD79",
"<@	c #F5B266",
"[@	c #DBDDDF",
"}@	c #051520",
"|@	c #25333D",
"1@	c #FCE6CD",
"2@	c #F5A446",
"3@	c #676767",
"4@	c #F8C182",
"5@	c #F9CD9B",
"6@	c #FAD5AC",
"7@	c #FEDFBB",
"8@	c #FFE4C3",
"9@	c #FFE4C2",
"0@	c #FEDDB8",
"a@	c #F9CF9F",
"b@	c #FEEBD6",
"c@	c #7E878C",
"d@	c #91999D",
"e@	c #F8C488",
"f@	c #F7BA74",
"g@	c #323232",
"h@	c #F8C07F",
"i@	c #F8BF7E",
"j@	c #F5AB57",
"k@	c #F9C68B",
"l@	c #FFE0BB",
"m@	c #FFF2E3",
"n@	c #F6F6F7",
"o@	c #283540",
"p@	c #192732",
"q@	c #E2E3E5",
"r@	c #F8C892",
"s@	c #FEF5EA",
"t@	c #232323",
"u@	c #FCE0C0",
"v@	c #F49D3A",
"w@	c #F7BB77",
"x@	c #FBDEBC",
"y@	c #FFF9F1",
"z@	c #ADB3B6",
"A@	c #656F76",
"B@	c #FFF7EE",
"C@	c #F8C283",
"D@	c #FBD7AF",
"E@	c #F7B971",
"F@	c #9D9D9D",
"G@	c #FDEEDC",
"H@	c #F7BD7A",
"I@	c #FCE8D2",
"J@	c #566169",
"K@	c #BABEC2",
"L@	c #FBD4A7",
"M@	c #FBDBB7",
"N@	c #E3E3E3",
"O@	c #FBDEBE",
"P@	c #EBECED",
"Q@	c #CACED0",
"R@	c #ADB2B6",
"S@	c #969DA2",
"T@	c #8D949A",
"U@	c #8F969B",
"V@	c #8E959A",
"W@	c #A1A7AB",
"X@	c #BBBFC2",
"Y@	c #E2E4E5",
"Z@	c #C4C8CA",
"`@	c #11202B",
" #	c #37444D",
".#	c #FBFBFB",
"+#	c #F5A84F",
"@#	c #E2E2E2",
"##	c #141414",
"$#	c #FEFEFE",
"%#	c #FDEFDF",
"&#	c #F5A64B",
"*#	c #F7C48B",
"=#	c #D0D3D5",
"-#	c #8C9499",
";#	c #505B63",
">#	c #24323C",
",#	c #061621",
"'#	c #1A2833",
")#	c #182631",
"!#	c #8C9399",
"~#	c #FBD8B1",
"{#	c #FCE3C7",
"]#	c #9E9E9E",
"^#	c #FAD0A1",
"/#	c #F39D3B",
"(#	c #AFB4B8",
"_#	c #4A565E",
":#	c #0A1925",
"<#	c #162530",
"[#	c #E4E6E7",
"}#	c #FAD9B3",
"|#	c #9C9C9C",
"1#	c #F9CA94",
"2#	c #F4A042",
"3#	c #FDE5CB",
"4#	c #BDC1C4",
"5#	c #414E56",
"6#	c #6F787F",
"7#	c #FADCBA",
"8#	c #F6B365",
"9#	c #FACE9C",
"0#	c #CFCFCF",
"a#	c #F4A144",
"b#	c #F7F8F8",
"c#	c #717A81",
"d#	c #313E48",
"e#	c #C1C5C8",
"f#	c #FBDBB6",
"g#	c #F4A143",
"h#	c #D6D9DB",
"i#	c #35424B",
"j#	c #798288",
"k#	c #5E5E5E",
"l#	c #ABABAB",
"m#	c #F8BF7D",
"n#	c #C4C8CB",
"o#	c #E9EAEB",
"p#	c #A9A9A9",
"q#	c #F9CE9F",
"r#	c #14232E",
"s#	c #01111D",
"t#	c #1B2934",
"u#	c #414D56",
"v#	c #39454F",
"w#	c #202E38",
"x#	c #03131F",
"y#	c #788087",
"z#	c #F8C589",
"A#	c #F6B66E",
"B#	c #15242F",
"C#	c #445059",
"D#	c #8B9298",
"E#	c #BEC2C5",
"F#	c #DFE1E3",
"G#	c #FAFAFB",
"H#	c #E3E5E6",
"I#	c #90979C",
"J#	c #48535C",
"K#	c #0C1B27",
"L#	c #D5D8DA",
"M#	c #F8C487",
"N#	c #FAD1A3",
"O#	c #F8F8F9",
"P#	c #2E3C45",
"Q#	c #5C666E",
"R#	c #C0C4C7",
"S#	c #5B656D",
"T#	c #626262",
"U#	c #5D686F",
"V#	c #B6BBBE",
"W#	c #2D3A44",
"X#	c #F7B56A",
"Y#	c #3C3C3C",
"Z#	c #8D8D8D",
"`#	c #FDEBD6",
" $	c #B4B9BC",
".$	c #737C82",
"+$	c #EFF0F1",
"@$	c #8E8E8E",
"#$	c #BCBCBC",
"$$	c #F6B264",
"%$	c #F9CFA0",
"&$	c #25343D",
"*$	c #FDECD8",
"=$	c #F5A74D",
"-$	c #FCE9D2",
";$	c #848C92",
">$	c #C8C8C8",
",$	c #F8C184",
"'$	c #F7F7F8",
")$	c #283640",
"!$	c #58626A",
"~$	c #CACACA",
"{$	c #FCDFBF",
"]$	c #AAB0B3",
"^$	c #1E2C37",
"/$	c #EEEFF0",
"($	c #F6B364",
"_$	c #F5A850",
":$	c #FFF8F0",
"<$	c #59636B",
"[$	c #9FA5AA",
"}$	c #F9C88F",
"|$	c #E8E9EB",
"1$	c #334049",
"2$	c #F5A242",
"3$	c #F9D0A2",
"4$	c #B5BABD",
"5$	c #F3F3F3",
"6$	c #80888E",
"7$	c #FBD8B0",
"8$	c #FFF0DE",
"9$	c #556068",
"0$	c #404C55",
"a$	c #38444E",
"b$	c #677178",
"c$	c #FFFCF9",
"d$	c #F6AB56",
"e$	c #868E93",
"f$	c #DDDFE1",
"g$	c #F7B66C",
"h$	c #0B1A26",
"i$	c #FAD6AC",
"j$	c #F7BB75",
"k$	c #F7B76E",
"l$	c #F6AD59",
"m$	c #DADCDE",
"n$	c #FFFEFC",
"o$	c #E4E5E7",
"p$	c #1F2D38",
"q$	c #81898F",
"r$	c #FDEDDA",
"s$	c #FFF7ED",
"t$	c #F3F3F4",
"u$	c #303D47",
"v$	c #626C73",
"w$	c #BBBBBB",
"x$	c #FFEED8",
"y$	c #4B565F",
"z$	c #FDE1BF",
"A$	c #091824",
"B$	c #CFD2D4",
"C$	c #FAD6AD",
"D$	c #616161",
"E$	c #F8CC9A",
"F$	c #A6ACB0",
"G$	c #8A9197",
"H$	c #FEF3E7",
"I$	c #0F1E29",
"J$	c #293640",
"K$	c #FBD9B2",
"L$	c #FFF4E8",
"M$	c #959CA1",
"N$	c #9DA3A8",
"O$	c #172630",
"P$	c #E5E7E8",
"Q$	c #5D5D5D",
"R$	c #F7BC79",
"S$	c #EFEFF1",
"T$	c #213039",
"U$	c #4C5760",
"V$	c #6C757C",
"W$	c #6D767D",
"X$	c #F7BC77",
"Y$	c #B9BDC1",
"Z$	c #4E5961",
"`$	c #13222D",
" %	c #ECEDEE",
".%	c #F9CA95",
"+%	c #F7C58C",
"@%	c #727C82",
"#%	c #92999E",
"$%	c #F4F5F5",
"%%	c #E6E8E9",
"&%	c #91989D",
"*%	c #FDE8D0",
"=%	c #48545C",
"-%	c #D9DBDD",
";%	c #D1D4D6",
">%	c #7C848A",
",%	c #34414A",
"'%	c #F5AD5B",
")%	c #334149",
"!%	c #424E57",
"~%	c #767F85",
"{%	c #BCC0C3",
"]%	c #9EA4A9",
"^%	c #727B81",
"/%	c #3C4851",
"(%	c #041420",
"_%	c #F8C48A",
":%	c #324049",
"<%	c #F9C68C",
"[%	c #4C5860",
"}%	c #7B8489",
"|%	c #202F38",
"1%	c #FDEAD5",
"2%	c #E3E4E6",
"3%	c #FAD2A6",
"4%	c #F2F3F3",
"5%	c #BEC3C5",
"6%	c #F9CC99",
"7%	c #FCE8D1",
"8%	c #FFEBD4",
"9%	c #7F878D",
"0%	c #101F2A",
"a%	c #525D65",
"b%	c #B3B8BB",
"c%	c #F5AA55",
"d%	c #F1F1F2",
"e%	c #1D2B36",
"f%	c #576269",
"g%	c #3D4952",
"h%	c #9B9FA6",
"i%	c #D9DADD",
"j%	c #FCE7D0",
"k%	c #FAD2A5",
"l%	c #979EA2",
"m%	c #DFE0E2",
"n%	c #CDCED2",
"o%	c #BFC1C6",
"p%	c #BDBFC4",
"q%	c #BEC0C5",
"r%	c #CBCCD0",
"s%	c #F8BE7D",
"t%	c #F3A042",
"u%	c #FFF8EE",
"v%	c #2B3942",
"w%	c #C6CACC",
"x%	c #FFF7EF",
"y%	c #F9D1A3",
"z%	c #FCC485",
"A%	c #A9AEB2",
"B%	c #49555D",
"C%	c #FFEFD8",
"D%	c #455159",
"E%	c #ABB0B4",
"F%	c #FCE5CC",
"G%	c #B1B7BA",
"H%	c #F9CE9D",
"I%	c #687179",
"J%	c #FDE8D2",
"K%	c #EDEEEF",
"L%	c #E7E9EA",
"M%	c #888F95",
"N%	c #2B3842",
"O%	c #747E83",
"P%	c #D8DADC",
"Q%	c #F8C78F",
"R%	c #7B7B7B",
"S%	c #D6D6D6",
"T%	c #868686",
"U%	c #F8C385",
"V%	c #0D0D0D",
"W%	c #F7BA73",
"X%	c #F9CD99",
"Y%	c #5B5B5B",
"Z%	c #E0E0E0",
"`%	c #888888",
" &	c #DCDCDC",
".&	c #343434",
"+&	c #B9B9B9",
"@&	c #B4B4B4",
"                                                                                                              . + @ @ # $ % & * = - % $ # @ ; + .                                                                                                               ",
"                                                                                                  > , ' ) ! ! ! ! ! ! ! ! ! ! ! ! ! ! ! ! ! ! ! ! ! ! ) ' ~ {                                                                                                   ",
"                                                                                            , ] ^ ! ! ! ! ! ! ! ! / ( ( _ : < * [ < } _ ( ( ! ! ! ! ! ! ! ! ! | ] ,                                                                                             ",
"                                                                                      ~ ) ! ! ! ! ! ! ! : + 1 2 3 4 5 6 7 8 9 0 a 9 8 7 b c 4 d e 1 + : ! ! ! ! ! ! ! ) f                                                                                       ",
"                                                                                g h ! ! ! ! ! ! ) i j k l m n n n n n n n n n n n n n n n n n n n n m l o p q ) ! ! ! ! ! ! r s                                                                                 ",
"                                                                            t ! ! ! ! ! u { e v 0 n n n n n n n n n n n n n n n n n n n n n n n n n n n n n n 0 w 2 { u ! ! ! ! ! f                                                                             ",
"                                                                        x ! ! ! ! ! s e y n n n n n n n n n n n n n n n n n n n n n n n n n n n n n n n n n n n n n n z A B ! ! ! ! ! x                                                                         ",
"                                                                    x ! ! ! ! / C D E n n n n n n n n n n n n n n n n n n n n n n n n n n n n n n n n n n n n n n n n n n E F G / ! ! ! ! x                                                                     ",
"                                                                ; ! ! ! ! } H I n n n n n n n n n n n n n n n n n n n n n n n n n n n n n n n n n n n n n n n n n n n n n n n n 6 J K ! ! ! ! x                                                                 ",
"                                                            t u ! ! ! u L M n n n n n n n n n n n n n n n n n n n n n n n n n n n n n n n n n n n n n n n n n n n n n n n n n n n n N e O ! ! ! | P                                                             ",
"                                                          r ! ! ! u Q R n n n n n n n n n n n n n n n n n n n n n n n n n n n n n n n n n n n n n n n n n n n n n n n n n n n n n n n n S T u ! ! ! r                                                           ",
"                                                      , ! ! ! ! U V n n n n n n n n n n n n n n n n n n n n n n n n n n n n n n n n n n n n n n n n n n n n n n n n n n n n n n n n n n n n V W ! ! ! ! X                                                       ",
"                                                    Y ! ! ! r Z n n n n n n n n n n n n n n n n n n n n n n n n n n n n n n n n n n n n n n n n n n n n n n n n n n n n n n n n n n n n n n n n `  .! ! ! Y                                                     ",
"                                                ; O ! ! ! ..7 n n n n n n n n n n n n n n n n n n n n n n n n n n n n n n n n n n n n n n n +.@.#.@.$.n n n n n n n n n n n n n n n n n n n n n n 7 %.! ! ! &.@                                                 ",
"                                              *.! ! ! =.` n n n n n n n n n n n n n n -.;.>.n n n n n n n n n n n n n n n n n n n n n n n ,.'.).).).!.~.n n n n n n n n n n n n n n n n n n n n n n n ` =.! ! ! f                                               ",
"                                            t ! ! ! s {.n n n n n n n n n n n n n n ].^.)./.(.n n n n n n n n n n n n n n n n n n n n n n _.).).).).).:.n n n n n n n n n n n n n n n n n n n n n n n n <.+ ! ! ! P                                             ",
"                                           .! ! ! [.}.n n n n n n n n n n n n n n |.).).).).1.2.n n n n n n 3.2.n n n n n n n n n n n n 4.5.).).).).).6.n n n n n n n n n n n n n n n n n n n n n n n n n a T ! ! !  .                                          ",
"                                        % ! ! ! 7.n n n n n n n n n n n n n n n n 8.).).).).9.0.n n n n n a.b.c.d.4.n n n n n n n n n n e.).).).).).f.g.n n n n n n n n n n n n n n n n n n n n n n n n n n n h.! ! ! i.                                        ",
"                                      - ! ! ! 3 n n n n n n n n n n n n n n n n j.k.).).).).l.m.n n n n n.).).).).o.n n n n n n n n n n p.).).).).).q.n n n n n n n n n n n n n n n n n n n n n n n n n n n n n r.! ! ! s.                                      ",
"                                    s.! ! ! t.n n n n n n n n n n n n n n n n n u.).).).).).v.n n n n w.x.).).).).5.n n n n n n n n n y.z.).).).).!.m.n n n n n n n n n n n n n n n n n n n n n n n n n n n n n n A.! ! ! s.                                    ",
"                                  - ! ! ! B.n n n n n n n n n n n n n n n n n g.C.).).).).).D.n n n n E.).).).).).F.n n n n n n n n n G.).).).).).H.n n n n n n n n n n n n n n n n n n n n n n n n n n n n n n n n V ! ! ! s.                                  ",
"                                r ! ! ! V n n n n n n n n n n n n n n n n n n I.).).).).).J.4.n n n n K.).).).).).L.n n n n n n n n M.N.).).).).).O.n n n n n n n n n n n n n n n n n n n n n n n n n n n n n n n n n B.! ! ! r                                 ",
"                              P.! ! ! D n n n n n n n n n n n n n n n n n n n Q.).).).).).R.n n n n n 8.).).).).z.S.n n n n n n n n 6.).).).).).T.4.n n n n n n n n n n n n n n n n n n n n n n n n n n n n n n n n n n t.! ! ! '                               ",
"                            t ! ! ! U.n n n n n n n n n n n n n n n n n n n j.z.).).).).V.m.n n n n n W.).).).).X.n n n n n n n n n p.).).).).).Y.n n n n n n n n n n n n n n n n n n n n n n n n n n n n n n n n n n n n Z.! ! ! t                             ",
"                          ] ! ! ! e n n n n n n n n n n n n n n n n n n n n `.).).).).). +n n n n n n n .+5.++X.@+n n n n n n n n #+$+).).).).%+&+n n n n n n n n n n n n n n n n n n n n n n n n n n n n n n n n n n n n n L ! ! ! @                           ",
"                          ( ! ! ..n n n n n n n n n n n n n n n n n n n n g.*+).).).).).=+n n n n n n n n 4.-+n n n n n n n n n n ;+).).).).).Q.n n n n n n n -..+6.n n n n n n n n n n n n n n n n n n n n n n n n n n n n n ..! ! u                           ",
"                        >+! ! Y ,+n n n n n n n n n n n n n n n n n n n n '+).).).).)./.n n n n n n n n n n n n n n n n n n n n n G.).).).).).)+n n n n n n :.!.).).!+M.n n n n n n n n n n n n n n n n n n n n n n n n n n n ,+; ! ! $                         ",
"                      f ! ! u S n n n n n n n n n n n n n n n n n n n n n ~+).).).).).{+n n n n n n n n n n n n n n n n n n n n n ,.]+).).).^+/+n n n n n S.#.).).).).W.n n n n n n n n n n n n n n n n n n n n n n n n n n n n N / ! ! P.                      ",
"                      ! ! ! ` n n n n n n n n n n n n n n n n n n n n n n (+).).).).9._+n n n n n :+-./+n n n n n n n n n n n n n n <+[+T.H.j.n n n n n n }+).).).).).a.n n n n n n n n n n n n n n n n n n n n n n n n n n n n n ` ! ! !                       ",
"                    % ! ! |+n n n n n n n n n n n n n n n n n n n n n n n '+).).).).1+n n n n n 2+3+4+5+6+n n n n n n n n n n n n n n n 2.n n n n n n n /+7+).).).).).8+n n n n n n n n n n M.y.n n n n n n n n n n n n n n n n n n 9+! ! %                     ",
"                  ~ ! ! &.0 n n n n n n n n n n n n n n n n n n n n n n n n 0+C.x.1+a+n n n n b+).).).)./.c+n n n n n n n n n n n n n n n n n n n n n n #+k.).).).).3+g.n n n n n n n n n d+*+e+f+g+n n n n n n n n n n n n n n n n a &.! ! f                   ",
"                  ! ! ! h+n n n n n n n n n n n n n n n n n n n n n n n n n n @+:+n n n n n n ~+).).).).).d+n n n n n n n n n n n n n n n n n n n n n n :+l.).).).).i+n n n n n n n n n j+k+).).).++l+n n n n n n n n n n n n n n n n m+! ! !                   ",
"                ] ! ! . n n n n n n n n n n n n n n n n n n n n n n n n n n n n n n n n n n :+3+).).).).n+o+n n n n n n n n n n n n n n n n n n n n n n n p+).).).q+r+n n n n n n n n n n.).).).).).I.n n n n n n n n n s+{+t+u+n n n n v+! ! ;                 ",
"                ! ! ! {.n n n n n n n n n n n n /+w+n n n n n n n n n n n n n n n n n n n n x+).).).).).y+n n n n n n n n n n n n n n n n n n n n n n n n n z+X.`.l+n n n n n n n n n n J.).).).).).;.n n n n n n n n =+k+).).f.S.n n n A+! ! !                 ",
"              r ! ! B+n n n n n n n n n n n n )+C+$+D+,.n n n n n n n n E+!+F+G+n n n n n n 8.).).).).).x+n n n n n r+o+;.x+2+H+}+:.I+;.J+r+n n n n n n n n n n n n n n n n n n n n n =+).).).).).^+a+n n n n n n n K+5.).).).).L+n n n n [.! ! r               ",
"              ! ! / 0 n n n n n n n n n n n J+V.).).).f.c+n n n n n n M+c.).).).N+n n n n ~.4+).).).).C.n n j.I+O+D+@.k.).).).).).).).).).P+n n n Q+n n n n n n n n n n n n n n n n n K.).).).).).`.n n n n n n n n R+).).).).).S+n n n n 0 ! ! !               ",
"            Y ! ! e n n n n n n n n n n n n T+).).).).).R+n n n n n n U+).).).).#.&+n n n R.).).).).). +$.V+z.).).).).).).).).).).).).).V.W+n n X+Y+Z+`+n n n n n n n n n n n n n n l+^.).).).).z.o+n n n n n n n n  @).).).).)..@n n n n n A ! ! r             ",
"            ! ! ^ a n n n n n n n n n n n 2.+@).).).).n+g+n n n n n M.b.).).).).^.o+n n @@++).).).).).^.).).).).).).).).).).).).).).).).#@n n n $@%@%@%@&@*@=@n n n n n n n n n n n H+).).).).).H.n n n n n n n n -@;@).).).).>@-.n n n n n ,@( ! !             ",
"          *.! ! '@n n n n n n n n n n n n x+).).).).).)@K+n n n n n )+).).).).).f+/+n n D.).).).).).).).).).).).).).).).).).).).).).).).!@n n n ~@%@%@%@%@%@{@]@^@n n n n n n n n M.1.).).).).)./@n n n n n n n n (@n+).).).).D+n n n n n n n '@! ! P.          ",
"          / ! ! _@n n n n n n n n n n n n D+).).).).).t+n n n n n n :@).).).).).H+n n n 8.).).).).).).).).).).).).).).).).).).).).).).<@n n n [@}@%@%@%@%@%@%@|@^@n n n n n n n n 1@).).).).).;@2.n n n n n n n n ,.2@).).).).0+n n n n n n n _@/ ! !           ",
"        X ! ! 3@n n n n n n n n n n n n b+n+).).).).#.u+n n n n n -@#.).).).).$+_+n n M+n+).).).).).).).).).).).).k+)@4@5@6@7@8@9@0@a@b@n n n c@%@%@%@%@%@%@%@d@n n n n n n n n n e@).).).).).d.n n n n n n n n n n G.).).).f@w.n n n n n n n n q ! ! g@        ",
"        i.! ! y n n n n n n n n n n n n N+).).).).).p.n n n n n n t+).).).).).h@n n M.i@).).).).).).).).).).j@k@l@m@M.n n n n n n n n n n n n@o@%@%@%@%@%@%@p@q@n n n r@~+n n n s@l.).).).).V.-.n n n n n n n n n n n D.a..+4.n n n n n n n n n B.! ! %         ",
"        ! ! t@m n n n n n n n n n n n 2.++).).).).).6+n n n n n n D+).).).).).u@n y.F+).).).).).).).).v@w@x@y@n n n n n n n n n n n n n n n z@%@%@%@%@%@%@%@A@n n n B@v@).C@g.n D@).).).).).E@n n n n n n n n n n n n n n n n n n n n n n n n n m x ! !         ",
"      P ! ! F@n n n n n n n n n n n n x@).).).).).7+n n n n n n G@%+).).).).++n y.C+).).).).).).).).H@I@n n n n n n n n n n n n n n n n n n J@%@%@%@%@%@%@%@K@n n n L@).).).8.&+H.).).).).).M@n n n n n n n n n n n n n n n n n n n n n n n n n n F@! ! ~       ",
"      s.! ! N@n n n n n n n n n n n n :@).).).).).:.n n n n n n u.).).).).).{+y.N.).).).).).).).j@O@n n n n n n n n P@Q@R@S@T@U@V@U@W@X@Y@Z@`@%@%@%@%@%@%@ #.#n n M.j@).).).).3+2@).).).).+#2.n n n n n n n n n n n n n n n n n n n n n n n n n n @#! ! ##      ",
"      ! ! s $#n n n n n n n n n n n %#k.).).).).e+>.n n n n n 4.^+).).).).&#:.)@).).).).).).).*#y@n n n n n n =#-#;#>#,#%@%@%@%@%@%@%@%@'#)#%@%@%@%@%@%@%@!#n n n ~#).).).).).).).).).).).~+n n n n n n n n n -+{#d+n n n n n n n n n n n n n n n $#s ! !       ",
"    ~ ! ! ]#n n n n n n n n n n n n ^#).).).).).~+n n n n n n <+v@).).).)./.5.).).).).).)./#0+n n n n n n (#_#:#%@%@%@%@%@%@%@%@%@%@%@%@%@%@%@%@%@%@%@%@<#[#n n n }#).).).).).).).).).).).g+n n n n n n n n ,.*+).).:@2.n n n n n n n n n n n n n n |#! ! ,     ",
"    # ! ! D n n n n n n n n n n n n k@).).).).).<+n n n n n n 1#).).).).).n+).).).).).).2#3#n n n n n 4#5#%@%@%@%@%@%@%@%@%@%@%@%@%@%@%@%@%@%@%@%@%@%@%@6#n n n n n 7#V.).).).).).).).).8#n n n n n n n n n :@).).).).9#n n n n n n n n n n n n n n 0#! ! #     ",
"    ^ ! % ,@n n n n n n n n n n n n |.).).).).)@M.n n n n n -+T.).).).).).).).).).).).a#g+n n n n b#c#%@%@%@%@%@%@%@%@%@%@%@%@%@%@%@%@%@%@%@%@%@%@%@%@%@d#e#n n n n n ;.%+).).).).).).).f#n n n n n n n n m.V.).).).).y+n n n n n n n n n n n n n n ,@% ! ^     ",
"  *.! ! 1 n n n n n n n n n n n n n n R.2@).8#o+n n n n n n E.).).).).).).).).).).).g#0.n n n n h#i#%@%@%@%@%@%@%@%@%@%@%@%@%@%@%@%@%@%@%@%@%@%@%@%@%@%@%@%@j#^@n n n n 8+).).).).).).).o+n n n n n n n n `.).).).).).~+n n n n n n n n n n n n n n n k#! ! f   ",
"  f ! ! l#n n n n n n n n n n n n n n n ,.g+g.n n n n n n n m#).).).).).).).).).).v@O.n n n n n#<#%@%@%@%@%@%@%@%@%@%@%@%@%@%@%@%@%@%@%@%@%@%@%@%@%@%@%@%@%@<#o#n n n n n G+).).).).).).(+n n n n n n n @@J.).).).).n+=+n n n n n n n n n n n n n n n p#! ! ~   ",
"  x ! / 0#n n n n n n n n n n n n n n n n n n n n n n n n &+]+).).).).).).).).).).q#n n n n n#r#%@%@%@%@%@%@%@%@%@%@%@%@s#t#i#u#u#v#w#x#%@%@%@%@%@%@%@%@%@%@y#n n n n n n n z#).).).).).).R+n n n n n n <+).).).).).8#K+n n n n n n n n n n n n n n n 0#/ ! x   ",
"  % ! K 7 n n n n n n n n n n n n n n n n n n n n n n n n ;+).).).).).).).).).).A#n n n n h#B#%@%@%@%@%@%@%@%@%@%@%@C#D#E#F#Q+G#G#^@H#Z@I#J#s#%@%@%@%@%@%@K#L#n n n n n n n a+C+).).).).).S+n n n n n n M#).).).).).N#n n n n n n n n n n n n n n n n S K ! -   ",
"  ! ! X $#n n n n n n n n n n n n n n n n n n n n n n n n E@).).).).).).).).).^.%#n n n O#P#%@%@%@%@%@%@%@%@%@s#Q#R#n n n n n n n n n n n n Z@S#%@%@%@%@%@J@n n n n n n n n n e.n+).).).).).8+n n n n 3.z.).).).).'.%#n n n n n n n n n n n n n n n n $#+ ! /   ",
"  ! ! T#n n n n n n n n n n n n n n n n n n n n n n n n -.k.).).).).).).).).).i+n n n n U#%@%@%@%@%@%@%@%@%@&@E#n n n n n n n n n n n n n n n n V#W#%@%@%@V#n n n n n n n n n n 4@).).).).).X#n n n n ;+).).).).).V+n n n n n n n n n n n n n n n n n n T#! !   ",
"Y#! ! Z#n n n n n n n n n n n M.`#&+n n n n n n n n n n u.).).).).).).).).).@.u+n n n  $%@%@%@%@%@%@%@%@%@.$G#n n n n n n n n n n n n n n n n n n +$J@%@o@$#n n n n n n n n n n s+^.).).).).).d+n n n 7+).).).).).f#n n n n n n n n n n n n n n n n n n @$! ! Y#",
"x ! ! #$n n n n n n n n n n J+$$).2@^#n n n n n n n n M.^+).).).).).).).).).%$n n n O#&$%@%@%@%@%@%@%@%@U@n n n n n n n n n n n n n n n n n n n n n n S#U@n n n n n n n n n n n n p.).).).).).!+n n *$v@).).).).=$u+n n n n n n n n n n n n n n n n n n #$! ! x ",
"x ! / v n n n n n n n n n n 5+).).).).W.n n n n n n n -$v@).).).).).).).).]+S.n n n I#%@%@%@%@%@%@%@%@;$n n n n n n n n n n n n n n n n n n n n n n n n n n n n n n n n n n n n n g+).).).).).b.r+n d.).).).).).L+n n n n n n n n n n n n n n n n n n n v / ! x ",
"@ ! O >$n n n n n n n n n n k.).).).).p.n n n n n n n X.).).).).).).).).).,$n n n '$)$%@%@%@%@%@%@%@!$n n n n n n n n n n n n n n n n n n n n n n n n n n n n n n n n n n n n n n n )@).).).).).=+n C+).).).).).<+n n n n n n n n n n n n n n n n n n n ~$O ! @ ",
"# ! ( b n n n n n n n n n n c.).).).).i+n n n n n n 4.@.).).).).).).).).).{$n n n ]$%@%@%@%@%@%@%@^$/$n n n n n n n n n n n n n n n n n n n n n n n n n n n n n n n n n n n n n n n G+).).).).).^#d+n+).).).).($n n n n n n n n n n n n n n n n n n n n 6 ( ! # ",
"$ ! _ 7 n n n n n n n n n n N#).).).*+w+n n n n n n '+).).).).).).).).)._$:$n n n <$%@%@%@%@%@%@%@[$n n n n n n n n n n n n n n n n n n n n n n n n n n n n n n n n n n n n n n n n m.9.).).).).[+:@).).).).).n.n n n n n n n n n n n n n n n n n n n n 7 _ ! $ ",
"% ! } 8 n n n n n n n n n n n I.}$^#M+n n n n n n n :@).).).).).).).).).:@n n n |$t#%@%@%@%@%@%@1$m n n n n n n n n n n n n n n n n n n n n n n n n n n n n n n n n n n n n n n n n n $$).).).).V.n+).).).).2$#+n n n n n n n n n n n n n n n n n n n n 8 } ! % ",
"- ! < 9 n n n n n n n n n n n n n n n n n n n n n M+9.).).).).).).).).).3$n n n 4$%@%@%@%@%@%@%@*@n n n n n n n n n n n n n n n n n n n n n n n n n n n n n n n n n n n n n n n n n n ~+).).).).).).).).).).:@n n n n n n n n n n n n n n n n n n n n n 5$< ! & ",
"= ! [ a n n n n n n n n n n n n n n n n n n n n n n.).).).).).).).).).).|.n n n 6$%@%@%@%@%@%@`@h#n n n n n n n n n n n n n n n n n n n n n n n n n n n n n n n n n n n n n n n n n n 7$).).).).).).).).).).+.n n n n n n n n n n n n n n n n n n n n n 0 [ ! * ",
"* ! [ 0 n n n n n n n n n n n n n n n n n n n n n ^+).).).).).).).).).>@8$n n n 9$%@%@%@%@%@%@0$,+n n n n n n n n n n n n n n n n n n n n n n n n n n n n n n n n n n n n n n n n n n (@).).).).).).).).).+#c+n n n n n @+=+g+n n n n n n n n n n n n n a ##! = ",
"& ! < 9 n n n n n n n n n n n n n n n n n n n n b+).).).).).).).).).).c.:$n n O#a$%@%@%@%@%@%@b$n n n n n n n n n n n n n n n n n n n n n n n n n n n n n n n n n n n n n n n n n n n m.>@).).).).).).).). @n n n n n c$T+3+J.G+n n n n n n n n n n n n 9 < ! - ",
"% ! } 8 n n n n n n n n n n n n n n n n n n n n N+).).).).).).).).).).d$n n n o#|@%@%@%@%@%@%@e$n n n n n n n n n n n n n n n n n n n n n n n n n n n n n n n n n n n n n n n n n n n l+&#).).).).).).).).(.n n n n n O+).).).)./@n n n n n n n n n n n 8 } ! % ",
"$ ! _ 7 n n n n n n n n n n n n n n n n n n n w.C.).).).).).v@).).).).N.n n n f$<#%@%@%@%@%@%@S@n n n n n n n n n n n n n n n n n n n n n n n n n n n n n n n n n n n n n n n n n n n a+++).).).).).).).f.n n n n n _+'.).).).).g$n n n n n n n n n n n S _ ! $ ",
"# ! ( 6 n n n n n n n n n n n n n n n n n n n D.).).).).).f.++).).).).5.n n n h#h$%@%@%@%@%@%@S@n n n n n n n n n n n n n n n n n n n n n n n n n n n n n n n n n n n n n n n n n n n c$C.).).).).).).).G.n n n n n i$).).).).).j$n n n n n n n n n n n b ( ! # ",
"@ ! O ~$n n n n n n n n n n n n n n n n n n n z#).).).).).5@k$).).).).l$n n n m$`@%@%@%@%@%@%@*@n n n n n n n n n n n n n n n n n n n n n n n n n n n n n n n n n n n n n n n n n n n -+d$).).).).).).!.y.n n n n K+D+).).).).).x+n n n n n n n n n n n >$O ! @ ",
"x ! / v n n n n n n n n n n n n n n n n n n :+_$).).).)._$6+j$).).).).T.n$n n o$p$%@%@%@%@%@%@q$n n n n n n n n n n n n n n n n n n n n n n n n n n n n n n n n n n n n n n n n n n n j+]+).).).).).).K.n n n n n r$'.).).).).@.c+n n n n n n n n n n n v / ! x ",
"x ! ! #$n n n n n n n n n n n n n n n n n n x+).).).).).i@n H.).).).).]+s$n n t$u$%@%@%@%@%@%@v$n n n n n n n n n n n n n n n n n n n n n n n n n n n n n n n n n n n n n n n n n n n E+n+).).).).).).;.n n n n n 0.v@).).).).~+n n n n n n n n n n n n w$! ! x ",
"Y#! ! @$n n n n n n n n n n n n n n n n n n :@).).).).).x+n p.).).).).n+x$n n n y$%@%@%@%@%@%@ #O#n n n n n n n n n n n n n n n n n n n n n n n n n n n n n n n n n n n n n n n n n n =+).).).).).).l$4.n n n n n -+[+).).).n+r$n n n n n n n n n n n n Z#! ! Y#",
"  ! ! T#n n n n n n n n n n n n n n n n n w+k+).).).).]+:+n U+).).).).).z$n n n c#%@%@%@%@%@%@A$B$n n n n n n n n n n n n n n n n n n n n n n n n n n n n n n n n n n n n n n n n n n C$).).).).).).5@n n n n n n n ,.8.e+1.8+n n n n n n n n n n n n n D$! !   ",
"  / ! + $#n n n n n n n n n n n n n n n n ,.9.).).).).m#n n :.).).).).).E$n n n F$%@%@%@%@%@%@%@G$n n n n n n n n n n n n n n n n n n n n n n n n n n n n n n n n n n n n n n n n n n M#).).).).).>@r$n n n n n n n n H$)+b+n n n n n n n n n n n n n $#X ! !   ",
"  - ! ( S n n n n n n n n n n n n n n n n g.F+).).).).1@n n b+>@).).).).E@n n n f$I$%@%@%@%@%@%@J$.#n n n n n n n n n n n n n n n n n n n n n n n n n n n n n n n n n n n n n n n n n q+).).).).).D+n n n n n n n n n n n n n n n n n n n n n n n n n 7 K ! %   ",
"  x ! / 0#n n n n n n n n n n n n n n n n n w+:@k+++K$n n n -+N.).).).).]+L$n n n _#%@%@%@%@%@%@%@M$n n n n n n n n n n n n n n n n n n n n n n n n n n n n n n n n n n n n n n n n o+v@).).).).).C$n n n n n n n n n n n n n n n n n n n n n n n n n A./ ! x   ",
"  ~ ! ! p#n n n n n n n n n n n n n n n n n n n m.3.n n n n n p.).).).).).2+n n n N$%@%@%@%@%@%@%@O$P$n n n n n n n n n n n n n n n n n n n n n n n n n n n n n n n n n n n n n n n `.).).).).).&#m.n n n n n n n n n n n n n n n n n n n n n n n n n l#! ! f   ",
"  f ! ! Q$n n n n n n n n n n n n n n n n n n n n n n n n n n 2+).).).).).R$n n n S$T$%@%@%@%@%@%@%@U$n n n n n n n n n n n n n n n n n n n n n n n n n n n n n n n n n n n n n n @@C+).).).).).4@n n n n n n n n n n n n n n n n n n n n n n n n n n D$! ! *.  ",
"    ^ ! % ,@n n n n n n n n n n n n n n n n n n n n n n n n n _+k+).).).).'.s+n n n U@%@%@%@%@%@%@%@%@V$n n n n n n n n n n n n n n n n n n n n n n n f$F#n n n n n n n n n n n n {#).).).).).).I.n n n n n n n n n n n n n n n n n n n n n n n n n ,@% ! ^     ",
"    # ! ! 0#n n n n n n n n n n n n n n n n n n n n n n n n n n h@).).).).).N+n n n '$&$%@%@%@%@%@%@%@%@W$n n n n n n n n n n n n n n n n n n n n n H#w#v$n n n n n n n n n n n n X$).).).).).++c+n n n n n w.:+@@n n n n n n n n n n n n n n n n n D ! ! #     ",
"    , ! ! |#n n n n n n n n n n n n n -@E+/+n n n n n n n n n n O.).).).).).e+w+n n n Y$%@%@%@%@%@%@%@%@%@Z$F#n n n n n n n n n n n n n n n n n n E#w#%@`$ %n n n n n n n n n n <+9.).).).).)..%n n n n n )+N.^.D+E+n n n n n n n n n n n n n n n n ]#! ! ~     ",
"      ! ! s $#n n n n n n n n n n n N#^.).F.m.n n n n n n n n n K+f.).).).).).+%n n n n @%%@%@%@%@%@%@%@%@%@O$#%$%n n n n n n n n n n n n n n %%]@s#%@%@%@&%n n n n n n n n n n y+).).).).).n+b+n n n n r$#.).).).*+b+n n n n n n n n n n n n n n $#s ! !       ",
"      ##! ! @#n n n n n n n n n n I.).).).).D+n n n n n n n n n n K$).).).).).n+*%n n n n =%%@%@%@%@%@%@%@%@%@%@W#D#-%n n n n n n n n n n ;%>%{@%@%@%@%@%@,%,+n n n n n n n n x+).).).).).).k$n n n n n O+).).).).).N#n n n n n n n n n n n n n n N@! ! s.      ",
"      ~ ! ! F@n n n n n n n n n n D+).).).).^.s+n n n n n n n n n 4.S+).).).).).'%g.n n n Q+)%%@%@%@%@%@%@%@%@%@%@%@:#!%~%[$4#=#B${%]%^%/%(%%@%@%@%@%@%@%@%@4$n n n n n n n j+b.).).).).).)..+n n n n u+T.).).).).n+G+n n n n n n n n n n n n n n F@! ! P       ",
"        ! ! x m n n n n n n n n b+).).).).).+@M+n n n n n n n n n n ~+).).).).).)._%n n n n |$:%%@%@%@%@%@%@%@%@%@%@%@%@%@%@%@%@%@%@%@%@%@%@%@%@%@%@%@%@%@%@;#.#n n n n n n f@).).).).).).]+l+n n n n f#).).).).).)@~.n n n n n n n n n n n n n m ; ! !         ",
"        % ! ! B.n n n n n n n n X.).).).).).<%n n n n n n n n n n >.+#).).).).).).).p+n n n n P@[%%@%@%@%@%@%@%@%@%@%@%@%@%@%@%@%@%@%@%@%@%@%@%@%@%@%@%@%@%@O$P$n n n n n .%).).).).).).).C@n n n n n F+).).).).).G+n n n n n n n n n n n n n n V ! ! i.        ",
"        g@! ! q n n n n n n n 1@3+).).).).v@<+n n n n n n n n n n .+).).).).).).).).).O@n n n n .#}%}@%@%@%@%@%@%@%@%@%@%@%@%@%@%@%@%@%@%@%@%@%@%@%@%@%@%@|%]$.#n n n n n.).).).).).).).).'+n n n n 1%>@).).).).$+-@n n n n n n n n n n n n n n 3@! ! X         ",
"          ! ! ! l n n n n n n 5@).).).).).F.n n n n n n n n n n n D+).).).).).).).).).V.O@n n n n n Y$)#%@%@%@%@%@%@%@%@%@%@%@%@%@%@%@%@%@%@%@%@%@%@%@%@A@2%n n n n n 3%).).).).).).).).++/+n n n n U+).).).).).p.n n n n n n n n n n n n n n _@! ! /           ",
"          P.! ! J n n n n n n o.).).).).).t+n n n n n n n n n n 6+V.).).).).).).).).).).).6@M.n n n 4%p@%@%@%@%@%@%@%@%@%@%@%@%@%@%@%@%@%@%@%@%@%@%@J#5%n n n n n n a@).).).).).).).).).6%n n n n >.l$).).).).).7%n n n n n n n n n n n n n n '@! ! *.          ",
"            ! ! ( ,@n n n n n _+f@).).).1.3.n n n n n n n n n n 6%).).).).).V.).).).).).).).8%n n n 9%%@%@%@%@%@%@%@%@%@%@%@%@%@%@%@%@%@%@%@%@0%a%b%n n n n n n c+!+).).).).).).).).).v@~.n n n n +.).).).).).F.n n n n n n n n n n n n n n a ^ ! !             ",
"            r ! ! A n n n n n n 2.N+)@L+&+n n n n n n n n n n -+/.).).).).z.I+i@).).).).).c%:$n n d%e%%@%@%@%@%@%@I$f%g%p$K#%@%@%@%@:#e% #v$h%i%n n n n n n n j%*+).).).).).).).).).).k$n n n n n H.).).).).).:.n n n n n n n n n n n n n n e ! ! Y             ",
"              ! ! ! 0 n n n n n n n n n n n n n n n n n n n n u@).).).).).7+n g.k$).).).).k%n n n l%%@%@%@%@%@%@%@v$n $#m%n%o%p%q%o%r%m%O#n n n n n n n n l+.%4+).).).).).).).).).).).f#n n n n J+'.).).).).+#:+n n n n n n n n n n n n n 0 / ! !               ",
"              r ! ! [.n n n n n n n n n n n n n n n n n n n n s%).).).).).{+n n -+X$).).t%u%n n G#v%%@%@%@%@%@%@s#w%n n n n n n n n n n n n n n n n n x%y%x.).).).).).).).).).).).).]+c+n n n n N#).).).).).}$n n n n n n n n n n n n n n B+! ! r               ",
"                ! ! ! A+n n n n n n n n n n n n n n n n n n s+#.).).).).#.&+n n n n M#).z%n n n A%%@%@%@%@%@%@%@B%n n n n n n n n n n n n n n n n -.6%+#).).).).).).).).).).).).).).k@n n n n /+ @).).).).).1@n n n n n n n n n n n n n {.! ! !                 ",
"                ; ! ! v+n n n n n n n n n n n n n n n n n n x+).).).).). +n n n n n n y%C%n n n D%%@%@%@%@%@%@%@E%n n n n n n n n n n n n$w+F%_.k$V.).).).).).).).).).+#z.).).).).).0.n n n n n u@).).).).[+n n n n n n n n n n n n n n . ! ! ]                 ",
"                  ! ! ! o n n n n n n n n n n n n n n n n n d+).).).).).'+n n n n n n n n n n G%%@%@%@%@%@%@%@u$O#n n M.H%z#Y._._.9#X.i@)@b.).).).).).).).).).).).).~+x+'.).).).).^+n n n n n n n u.!.).($o+n n n n n n n n n n n n n h+! ! !                   ",
"                  f ! ! &.a n n n n n n n n n n n n n n n n M.k@).).).K.n n n n n n n n n n n I%%@%@%@%@%@%@%@d@n n n J%).).).).).).).).).).).).).).).).).).).).C.E.n Y.).).).).).k%n n n n n n n a+I.}+G@n n n n n n n n n n n n n 0 } ! ! ~                   ",
"                    % ! ! 9+n n n n n n n n n n n n n n n n n n $..@M@n n n n n n n n n n n n m$q$t#%@%@%@%@p@K%n n n !+).).).).).).).).).).).).).).).).).).@.n.-+n g.e+).).).).'.E+n n n n n n n n n n n n n n n n n n n n n n n n |+! ! %                     ",
"                      ! ! ! ` n n n n n n n n n n n n n n n n n n n n n n n n n n n n n n n n n n L%M%N%%@%@O%n n n s@2$).).).).).).).).).).).).).).).).*+n.:+n n n M@).).).).).H.n n n n n n n n n n n n n n n n n n n n n n n n ` ! ! !                       ",
"                      P.! ! / N n n n n n n n n n n n n n n n n n n n n n n n n n n n n n n n n n n n $%A%A@P%n n n Q%).).).).).).).).).).).).).>@5+.@;./+n n n n n D+).).).).).M@n n n n n n n n n n n n n n n n n n n n n n n S / ! ! f                       ",
"                        $ ! ! t@,+n n n n n n n n n n n n n n n n n n n n n n n n n n n n n n n n n n n n n n n n n z#x.]+k.n+v@>@4+).).).).).C.`#c$n n n n n n n %#n+).).).).3+l+n n n n n n n n n n n n n n n n n n n n n n ,+Y ! ! >+                        ",
"                          u ! ! R%n n n n n n n n n n n n n n n n n n n n n n n n n n n n n n n n n n n n n n n n n @+:+#+1%R+(@-$)@).).).).).C$n n n n n n n n n 6%).).).).).1+n n n n n n n n n n n n n n n n n n n n n n n ..! ! (                           ",
"                          @ ! ! ! L n n n n n n n n n n n n n n n n n n n n n n n n n n n n n n n n n n n n n n n n n n n n n n w._$).).).).2@-@n n n n n n n n n 8.).).).).).;.n n n n n n n n n n n n n n n n n n n n n n e ! ! ! ]                           ",
"                            t ! ! ! Z.n n n n n n n n n n n n n n n n n n n n n n n n n n n S.J+n n n n n n n n n n n n n n n n G.).).).).).4@n n n n n n n n n n G.).).).).5.4.n n n n n n n n n n n n n n n n n n n n n U.! ! ! t                             ",
"                              ' ! ! ! t.n n n n n n n n n n n n n n n n n n n n n n n n n R.]+9.k$m.n n n n n n n n n n n n n n ^+).).).).).'+n n n n n n n n n n g.s%).).d$<+n n n n n n n n n n n n n n n n n n n n n A.! ! ! P.                              ",
"                                r ! ! ! S%n n n n n n n n n n n n n n n n n n n n n n n |.).).).).D+K+n n n n n n n n n n n n 1@).).).).).C+@+n n n n n n n n n n n n (@D.u+n n n n n n n n n n n n n n n n n n n n n y ! ! ! r                                 ",
"                                  s.! ! ! V n n n n n n n n n n n n n n n n n n n n n n 7+).).).).V.E+n n n n n n n n n n n n k@).).).).).9#n n n n n n n n n n n n n n n n n n n n n n n n n n n n n n n n n n n n B.! ! ! -                                   ",
"                                    s.! ! ! A.n n n n n n n n n n n n n n n n n n n n J+).).).).).+#l+n n n n n n n n n n n n v.).).).).n+G@n n n n n n n n n n n n n n n n n n n n n n n n n n n n n n n n n n n F ! ! ! s.                                    ",
"                                      s.! ! ! U.n n n n n n n n n n n n n n n n n n n .@).).).).).k@n n n n n n n n n n n n n =+).).).).p.n n n n n n n n n n n n n n n n n n n n n n n n n n n n n n n n n n n 3 ! ! ! -                                       ",
"                                        i.! ! ! F@n n n n n n n n n n n n n n n n n >.+@).).).).v@(.n n n n n n n n n n n n n n x+5+d$e@>.n n n n n n n n n n n n n n n n n n n n n n n n n n n n n n n n n n 7.! ! ! %                                         ",
"                                           .! ! ! T%a n n n n n n n n n n n n n n n ;.).).).).).X#n n n n n n n n n n n n n n n n M.:+n n n n n n n n n n n n n n n n n n n n n n n n n n n n n n n n n n }.[.! ! !  .                                          ",
"                                            P ! ! ! + <.n n n n n n n n n n n n n n <+).).).).).7$n n n n n n n n n n n n /+L.U%E.n n n n n n n n n n n n n n n n n n n n n n n n n n n n n n n n n n n A+s ! ! ! t                                             ",
"                                              f ! ! ! V%` n n n n n n n n n n n n n K+W%).).).C+2.n n n n n n n n n n n -+D+).).).X%n n n n n n n n n n n n n n n n n n n n n n n n n n n n n n n n n ` =.! ! ! *.                                              ",
"                                                @ &.! ! ! %.7 n n n n n n n n n n n n a+d.F.1+H$n n n n n n n n n n n n x+).).).).).J+n n n n n n n n n n n n n n n n n n n n n n n n n n n n n n 7 ..! ! ! O ;                                                 ",
"                                                    Y ! ! ! r h+n n n n n n n n n n n n n n n n n n n n n n n n n n n n `.).).).).).6.n n n n n n n n n n n n n n n n n n n n n n n n n n n n n Z r ! ! ! Y                                                     ",
"                                                      X ! ! ! ! Y%V n n n n n n n n n n n n n n n n n n n n n n n n n n 0.).).).).3+y.n n n n n n n n n n n n n n n n n n n n n n n n n n n V U ! ! ! ! ,                                                       ",
"                                                          r ! ! ! u T 7 n n n n n n n n n n n n n n n n n n n n n n n n n ~#e+).++=+n n n n n n n n n n n n n n n n n n n n n n n n n n R Q u ! ! ! r                                                           ",
"                                                            P | ! ! ! O e N n n n n n n n n n n n n n n n n n n n n n n n n W.R.=+n n n n n n n n n n n n n n n n n n n n n n n n n M L u ! ! ! u t                                                             ",
"                                                                x ! ! ! ! K J Z%n n n n n n n n n n n n n n n n n n n n n n n n n n n n n n n n n n n n n n n n n n n n n n n n I `%} ! ! ! ! ;                                                                 ",
"                                                                    x ! ! ! ! / G F E n n n n n n n n n n n n n n n n n n n n n n n n n n n n n n n n n n n n n n n n n n E D C / ! ! ! ! x                                                                     ",
"                                                                        x ! ! ! ! ! B A  &n n n n n n n n n n n n n n n n n n n n n n n n n n n n n n n n n n n n n n V 2 .&! ! ! ! ! x                                                                         ",
"                                                                            f ! ! ! ! ! u { 2 w a n n n n n n n n n n n n n n n n n n n n n n n n n n n n n n a v e { u ! ! ! ! ! t                                                                             ",
"                                                                                s r ! ! ! ! ! ! ) q 7.m+l m n n n n n n n n n n n n n n n n n n n n m l k j i ) ! ! ! ! ! ! h g                                                                                 ",
"                                                                                      f ) ! ! ! ! ! ! ! : + 1 e 3 4 c 6 7 8 9 a 0 9 8 7 6 5 +&@&2 1 + : ! ! ! ! ! ! ! ) ~                                                                                       ",
"                                                                                            , ] | ! ! ! ! ! ! ! ! ! ( ( _ } < ##[ < } &.( K ! ! ! ! ! ! ! ! ! ^ ] ,                                                                                             ",
"                                                                                                  { ~ ' ) ! ! ! ! ! ! ! ! ! ! ! ! ! ! ! ! ! ! ! ! ! ! ) ' , >                                                                                                   ",
"                                                                                                              . + ; @ # $ % - = * & % $ # @ @ + .                                                                                                               "};
